Occupation Trends over Time in AYA
…
dat_all <- 
  dat %>%
  left_join(hivrslt_dat, by = c("study_id" = "study_id", "round" = "round")) %>%
  mutate(hivrslt = ifelse(is.na(hivrslt.x), hivrslt.y, hivrslt.x)) %>%
  select(-hivrslt.x, -hivrslt.y)

dat_all <-
  dat_all %>%  
  left_join(comm_num_dat, by = c("study_id" = "study_id", "round" = "round")) %>%
  mutate(comm_num = ifelse(is.na(comm_num.x), comm_num.y, comm_num.x)) %>%
  select(-comm_num.x, -comm_num.y)

dat_all %>% relocate(study_id) %>% group_by(study_id)

# A tibble: 105,060 x 90
# Groups:   study_id [51,620]
   study_id round radio bicycle motorcyc   car  roof floor walls electric
   <chr>    <chr> <dbl>   <dbl>    <dbl> <dbl> <dbl> <dbl> <dbl>    <dbl>
 1 A000001  R002      1       1        2     2     1     1     2        2
 2 A000001  R005      2       1        2     2     1     1     3        2
 3 A000001  R006      1       1        2     2     1     1     3        2
 4 A000001  R008      1       1        2     2     1     3     3        2
 5 A000035  R001      1       1        2     2     1     3     2        2
 6 A000035  R002      2       1        2     2     1     3     2        2
 7 A000051  R001      2       2        2     2     1     1     3        2
 8 A000077  R001      2       2        2     2     1     1     2        2
 9 A000077  R002      2       2        2     2     1     1     2        2
10 A000077  R003      2       2        2     2     1     1     2        2
# … with 105,050 more rows, and 80 more variables: latrine <dbl>,
#   othfloor <chr>, ageyrs <dbl>, evermarr <dbl+lbl>, currmarr <dbl+lbl>,
#   occup1 <dbl>, occup2 <dbl>, eversex <dbl>, pregnow <dbl+lbl>,
#   everpreg <dbl+lbl>, fpusing1 <dbl>, fpusing2 <dbl>, fpusing3 <dbl>,
#   fpusing4 <dbl>, fpusing5 <dbl>, fpusing6 <dbl>, fpusing7 <dbl>,
#   fpusing8 <dbl>, fpusing9 <dbl>, polymar <dbl>, sexyear <dbl>,
#   sexp1yr <dbl>, livechild <dbl>, occs <chr>, occup11 <dbl>, occup21 <dbl>,
#   othfp <chr>, alclstmo <chr>, sexp1out <dbl>, sexpsxm <dbl>,
#   pabuseyr <dbl+lbl>, ppushyr <dbl+lbl>, pfistyr <dbl+lbl>,
…
dat_all %>% select(all_of(vars))

# A tibble: 105,060 x 59
   occup1 occup2 occupat1 occupat2 occs     female ageyrs conf_age conf_age_flow
    <dbl>  <dbl> <chr>    <chr>    <chr>   <dbl+l>  <dbl>    <dbl>         <dbl>
 1      6      1 ""       ""       "NULL"  1 [Fem…     16       NA            16
 2      6      1 ""       ""       "NULL"  1 [Fem…     18       NA            18
 3      8      3 "NULL"   "NULL"   "STUDE… 1 [Fem…     20       NA            20
 4      1      3 ""       ""       ""      1 [Fem…     22       NA            22
 5      8      3 ""       ""       "STUDE… 0 [Mal…     15       NA            15
 6      8      3 ""       ""       "NULL"  0 [Mal…     16       NA            16
 7     10      1 ""       ""       "SHOP … 0 [Mal…     17       NA            17
 8     10      1 ""       ""       "SHOP … 1 [Fem…     23       NA            23
 9     10      1 ""       ""       "NULL"  1 [Fem…     23       NA            23
10     10      1 ""       ""       "NULL"  1 [Fem…     20       NA            20
# … with 105,050 more rows, and 50 more variables: comm_num <dbl>, radio <dbl>,
#   bicycle <dbl>, car <dbl>, motorcyc <dbl>, latrine <dbl>, electric <dbl>,
#   floor <dbl>, othfloor <chr>, roof <dbl>, walls <dbl>, everpreg <dbl+lbl>,
#   pregnow <dbl+lbl>, livechild <dbl>, numchild <dbl>, evermarr <dbl+lbl>,
#   currmarr <dbl+lbl>, polymar <dbl>, evermend <dbl+lbl>, pabuseyr <dbl+lbl>,
#   ppushyr <dbl+lbl>, pfistyr <dbl+lbl>, pkickyr <dbl+lbl>, pweapyr <dbl+lbl>,
#   patknyr <dbl+lbl>, pothvyr <dbl+lbl>, vthrsxpy <dbl+lbl>,
#   pfocsxpy <dbl+lbl>, othfsxpy <dbl+lbl>, othpvyrs <chr>, hivrslt <dbl>,
#   occupat11 <chr>, occupat21 <chr>, occup11 <dbl>, occup21 <dbl>,
…
# cross checking evermarr v.s. currmarr
# if currmarr = 1 | 2 then evermarr = 1
dat_assoc %>% filter(currmarr == 1 | currmarr == 2) %>% select(evermarr) %>% unique()

# A tibble: 3 x 1
  evermarr
     <dbl>
1        8
2        1
3        2

dat_assoc %>% filter(currmarr == 1 | currmarr == 2, evermarr == 8)

# A tibble: 15,946 x 13
   study_id visit    occup1 area  female everpreg pregnow   SES SEScat livechild
   <chr>    <dbl> <dbl+lbl> <chr>  <dbl>    <dbl>   <dbl> <dbl> <ord>      <dbl>
 1 A000001      2  6 [Gove… rural      1        2       8 0.987 low-m…         8
 2 A000035      1  8 [Stud… rural      0        8       8 1.47  high-…         8
 3 A000035      2  8 [Stud… rural      0        8       8 1.15  low-m…         8
 4 A000051      1 10 [Shop… rural      0        8       8 1.04  low-m…         8
 5 A000077      1 10 [Shop… rural      1        8       2 0.556 lowest         8
 6 A000077      2 10 [Shop… rural      1        2       8 0.556 lowest         8
 7 A000077      3 10 [Shop… rural      1        2       8 0.556 lowest         8
 8 A000124      1 15 [Othe… rural      1        8       2 1.15  low-m…         8
 9 A000140      3  1 [Agri… rural      0        8       8 0.214 lowest         8
10 A000166      1  1 [Agri… rural      1        8       2 1.15  low-m…         8
# … with 15,936 more rows, and 3 more variables: numchild <dbl>,
#   evermarr <dbl>, currmarr <dbl+lbl>
…
